%YAML 1.1
%TAG !u! tag:unity3d.com,2011:
--- !u!1045 &1
EditorBuildSettings:
  m_ObjectHideFlags: 0
  serializedVersion: 2
  m_Scenes:
  - enabled: 1
    path: Assets/Scenes/Menu.unity
    guid: b6631c6b391de204e886cf393e4b5df9
  - enabled: 1
    path: Assets/Scenes/Game.unity
    guid: cb9fc2c19a4c15b4e91ef60cf49d8302
  - enabled: 1
    path: Assets/Scenes/BetweenLevels.unity
    guid: 51d4128a02c436d4784a71327e6febc8
  m_configObjects: {}
